[gd_scene load_steps=2 format=3 uid="uid://cpe3gprdva0ll"]

[ext_resource type="Script" path="res://src/deckbuilder/card/card_components/draw_cards_from_hand_component.gd" id="1_nx74a"]

[node name="DrawCardsFromHandComponent" type="Node"]
script = ExtResource("1_nx74a")
