[gd_scene load_steps=2 format=3 uid="uid://bstkfucwpklvo"]

[ext_resource type="Script" path="res://src/deckbuilder/card/card_components/give_self_esteem_component.gd" id="1_7iu65"]

[node name="GiveSelfEsteem" type="Node"]
script = ExtResource("1_7iu65")
