[gd_scene load_steps=3 format=3 uid="uid://bxbst32yygi4x"]

[ext_resource type="Script" path="res://src/deckbuilder/card/card_components/stick_on_component.gd" id="1_4kok4"]
[ext_resource type="PackedScene" uid="uid://7rj3w2q8y402" path="res://src/deckbuilder/card/card_components/states/StickedState.tscn" id="2_gbjo6"]

[node name="StickOnComponent" type="Node"]
script = ExtResource("1_4kok4")
sticked_state = ExtResource("2_gbjo6")
