[gd_scene load_steps=3 format=3 uid="uid://c7yaa43m7d5m6"]

[ext_resource type="PackedScene" uid="uid://6loxlnkqyaq7" path="res://src/deckbuilder/characters/character.tscn" id="1_0u18q"]
[ext_resource type="Script" path="res://src/deckbuilder/characters/date.gd" id="1_6yw7x"]

[node name="Date" instance=ExtResource("1_0u18q")]
scale = Vector2(1, -1)
script = ExtResource("1_6yw7x")

[node name="SelfEsteemCounter" parent="." index="3"]
offset_top = 40.0
offset_bottom = 80.0
scale = Vector2(1, -1)
